{
  "type": "object",
  "$schema": "http://json-schema.org/draft-03/schema",
  "id": "#",
  "properties": {
    "positionList": {
      "type": "array",
      "id": "positionList",
      "items": {
        "type": "object",
        "properties": {
          "coordinate": {
            "type": "object",
            "id": "coordinate",
            "properties": {
              "latitude": {
                "type": "number",
                "id": "latitude"
              },
              "longitude": {
                "type": "number",
                "id": "longitude"
              }
            }
          },
          "dateTime": {
            "type": "object",
            "id": "dateTime",
            "properties": {
              "day": {
                "type": "number",
                "id": "day"
              },
              "hour": {
                "type": "number",
                "id": "hour"
              },
              "minute": {
                "type": "number",
                "id": "minute"
              },
              "month": {
                "type": "number",
                "id": "month"
              },
              "seconds": {
                "type": "number",
                "id": "seconds"
              },
              "timezone": {
                "type": "string",
                "id": "timezone"
              },
              "year": {
                "type": "number",
                "id": "year"
              }
            }
          },
          "ignitionState": {
            "type": "string",
            "id": "ignitionState"
          },
          "heading": {
            "type": "number",
            "id": "heading"
          },
          "deviceId": {
            "type": "string",
            "id": "deviceId"
          },
          "speed": {
            "type": "number",
            "id": "speed"
          }
        }
      }
    }
  }
}